tests/results/test_regfile.vcd
$date
	Fri Aug 15 15:43:18 2025
$end
$version
	Icarus Verilog
$end
$timescale
	1ps
$end
$scope module test_regfile $end
$var wire 32 ! rs2_data [31:0] $end
$var wire 32 " rs1_data [31:0] $end
$var reg 1 # clk $end
$var reg 5 $ rd [4:0] $end
$var reg 32 % rd_data [31:0] $end
$var reg 5 & rs1 [4:0] $end
$var reg 5 ' rs2 [4:0] $end
$var reg 1 ( rst_n $end
$var reg 1 ) write_enable $end
$scope module dut $end
$var wire 1 # clk $end
$var wire 5 * rd [4:0] $end
$var wire 32 + rd_data [31:0] $end
$var wire 5 , rs1 [4:0] $end
$var wire 32 - rs1_data [31:0] $end
$var wire 5 . rs2 [4:0] $end
$var wire 32 / rs2_data [31:0] $end
$var wire 1 ( rst_n $end
$var wire 1 ) write_enable $end
$scope begin $ivl_for_loop0 $end
$var integer 32 0 i [31:0] $end
$upscope $end
$upscope $end
$scope begin $ivl_for_loop1 $end
$var integer 32 1 i [31:0] $end
$upscope $end
$scope begin $unm_blk_17 $end
$var reg 32 2 rd [31:0] $end
$var reg 5 3 rr [4:0] $end
$upscope $end
$scope task read_reg $end
$var reg 5 4 rad [4:0] $end
$var reg 32 5 rexp [31:0] $end
$var reg 2 6 rg_sel [1:0] $end
$upscope $end
$scope task write_reg $end
$var reg 5 7 wad [4:0] $end
$var reg 32 8 wdt [31:0] $end
$upscope $end
$upscope $end
$enddefinitions $end
#0
$dumpvars
bx 8
bx 7
bx 6
bx 5
bx 4
bx 3
bx 2
b0 1
b100000 0
b0 /
b0 .
b0 -
b0 ,
b0 +
b0 *
0)
0(
b0 '
b0 &
b0 %
b0 $
0#
b0 "
b0 !
$end
#5000
b100000 0
1#
#10000
0#
#15000
1(
1#
#20000
0#
#25000
b0 6
b0 5
b0 4
1#
#30000
0#
#31000
b1 6
#35000
1#
#40000
0#
#41000
b0 6
b1 4
b1 1
#45000
1#
#50000
b1 &
b1 ,
0#
#51000
b1 6
#55000
1#
#60000
b1 '
b1 .
0#
#61000
b0 6
b10 4
b10 1
#65000
1#
#70000
b10 &
b10 ,
0#
#71000
b1 6
#75000
1#
#80000
b10 '
b10 .
0#
#81000
b0 6
b11 4
b11 1
#85000
1#
#90000
b11 &
b11 ,
0#
#91000
b1 6
#95000
1#
#100000
b11 '
b11 .
0#
#101000
b0 6
b100 4
b100 1
#105000
1#
#110000
b100 &
b100 ,
0#
#111000
b1 6
#115000
1#
#120000
b100 '
b100 .
0#
#121000
b0 6
b101 4
b101 1
#125000
1#
#130000
b101 &
b101 ,
0#
#131000
b1 6
#135000
1#
#140000
b101 '
b101 .
0#
#141000
b0 6
b110 4
b110 1
#145000
1#
#150000
b110 &
b110 ,
0#
#151000
b1 6
#155000
1#
#160000
b110 '
b110 .
0#
#161000
b0 6
b111 4
b111 1
#165000
1#
#170000
b111 &
b111 ,
0#
#171000
b1 6
#175000
1#
#180000
b111 '
b111 .
0#
#181000
b0 6
b1000 4
b1000 1
#185000
1#
#190000
b1000 &
b1000 ,
0#
#191000
b1 6
#195000
1#
#200000
b1000 '
b1000 .
0#
#201000
b0 6
b1001 4
b1001 1
#205000
1#
#210000
b1001 &
b1001 ,
0#
#211000
b1 6
#215000
1#
#220000
b1001 '
b1001 .
0#
#221000
b0 6
b1010 4
b1010 1
#225000
1#
#230000
b1010 &
b1010 ,
0#
#231000
b1 6
#235000
1#
#240000
b1010 '
b1010 .
0#
#241000
b0 6
b1011 4
b1011 1
#245000
1#
#250000
b1011 &
b1011 ,
0#
#251000
b1 6
#255000
1#
#260000
b1011 '
b1011 .
0#
#261000
b0 6
b1100 4
b1100 1
#265000
1#
#270000
b1100 &
b1100 ,
0#
#271000
b1 6
#275000
1#
#280000
b1100 '
b1100 .
0#
#281000
b0 6
b1101 4
b1101 1
#285000
1#
#290000
b1101 &
b1101 ,
0#
#291000
b1 6
#295000
1#
#300000
b1101 '
b1101 .
0#
#301000
b0 6
b1110 4
b1110 1
#305000
1#
#310000
b1110 &
b1110 ,
0#
#311000
b1 6
#315000
1#
#320000
b1110 '
b1110 .
0#
#321000
b0 6
b1111 4
b1111 1
#325000
1#
#330000
b1111 &
b1111 ,
0#
#331000
b1 6
#335000
1#
#340000
b1111 '
b1111 .
0#
#341000
b0 6
b10000 4
b10000 1
#345000
1#
#350000
b10000 &
b10000 ,
0#
#351000
b1 6
#355000
1#
#360000
b10000 '
b10000 .
0#
#361000
b0 6
b10001 4
b10001 1
#365000
1#
#370000
b10001 &
b10001 ,
0#
#371000
b1 6
#375000
1#
#380000
b10001 '
b10001 .
0#
#381000
b0 6
b10010 4
b10010 1
#385000
1#
#390000
b10010 &
b10010 ,
0#
#391000
b1 6
#395000
1#
#400000
b10010 '
b10010 .
0#
#401000
b0 6
b10011 4
b10011 1
#405000
1#
#410000
b10011 &
b10011 ,
0#
#411000
b1 6
#415000
1#
#420000
b10011 '
b10011 .
0#
#421000
b0 6
b10100 4
b10100 1
#425000
1#
#430000
b10100 &
b10100 ,
0#
#431000
b1 6
#435000
1#
#440000
b10100 '
b10100 .
0#
#441000
b0 6
b10101 4
b10101 1
#445000
1#
#450000
b10101 &
b10101 ,
0#
#451000
b1 6
#455000
1#
#460000
b10101 '
b10101 .
0#
#461000
b0 6
b10110 4
b10110 1
#465000
1#
#470000
b10110 &
b10110 ,
0#
#471000
b1 6
#475000
1#
#480000
b10110 '
b10110 .
0#
#481000
b0 6
b10111 4
b10111 1
#485000
1#
#490000
b10111 &
b10111 ,
0#
#491000
b1 6
#495000
1#
#500000
b10111 '
b10111 .
0#
#501000
b0 6
b11000 4
b11000 1
#505000
1#
#510000
b11000 &
b11000 ,
0#
#511000
b1 6
#515000
1#
#520000
b11000 '
b11000 .
0#
#521000
b0 6
b11001 4
b11001 1
#525000
1#
#530000
b11001 &
b11001 ,
0#
#531000
b1 6
#535000
1#
#540000
b11001 '
b11001 .
0#
#541000
b0 6
b11010 4
b11010 1
#545000
1#
#550000
b11010 &
b11010 ,
0#
#551000
b1 6
#555000
1#
#560000
b11010 '
b11010 .
0#
#561000
b0 6
b11011 4
b11011 1
#565000
1#
#570000
b11011 &
b11011 ,
0#
#571000
b1 6
#575000
1#
#580000
b11011 '
b11011 .
0#
#581000
b0 6
b11100 4
b11100 1
#585000
1#
#590000
b11100 &
b11100 ,
0#
#591000
b1 6
#595000
1#
#600000
b11100 '
b11100 .
0#
#601000
b0 6
b11101 4
b11101 1
#605000
1#
#610000
b11101 &
b11101 ,
0#
#611000
b1 6
#615000
1#
#620000
b11101 '
b11101 .
0#
#621000
b0 6
b11110 4
b11110 1
#625000
1#
#630000
b11110 &
b11110 ,
0#
#631000
b1 6
#635000
1#
#640000
b11110 '
b11110 .
0#
#641000
b0 6
b11111 4
b11111 1
#645000
1#
#650000
b11111 &
b11111 ,
0#
#651000
b1 6
#655000
1#
#660000
b11111 '
b11111 .
0#
#661000
b100000 1
#662000
b10010000101010011010100100100 8
b10010 7
b10010000101010011010100100100 2
b10010 3
#665000
1#
#670000
1)
b10010000101010011010100100100 %
b10010000101010011010100100100 +
b10010 $
b10010 *
0#
#675000
1#
#680000
b0 6
b10010000101010011010100100100 5
b10010 4
b0 %
b0 +
0)
0#
#685000
1#
#690000
b10010000101010011010100100100 "
b10010000101010011010100100100 -
b10010 &
b10010 ,
0#
#691000
b11000000100010010101111010000001 8
b1000 7
b11000000100010010101111010000001 2
b1000 3
#695000
1#
#700000
1)
b11000000100010010101111010000001 %
b11000000100010010101111010000001 +
b1000 $
b1000 *
0#
#705000
1#
#710000
b11000000100010010101111010000001 5
b1000 4
b0 %
b0 +
0)
0#
#715000
1#
#720000
b11000000100010010101111010000001 "
b11000000100010010101111010000001 -
b1000 &
b1000 ,
0#
#721000
b10000100100001001101011000001001 8
b0 7
b10000100100001001101011000001001 2
b0 3
#725000
1#
#730000
1)
b10000100100001001101011000001001 %
b10000100100001001101011000001001 +
b0 $
b0 *
0#
#735000
1#
#740000
b0 5
b0 4
b0 %
b0 +
0)
0#
#745000
1#
#750000
b0 "
b0 -
b0 &
b0 ,
0#
#751000
b10110001111100000101011001100011 8
b110 7
b10110001111100000101011001100011 2
b110 3
#755000
1#
#760000
1)
b10110001111100000101011001100011 %
b10110001111100000101011001100011 +
b110 $
b110 *
0#
#765000
1#
#770000
b10110001111100000101011001100011 5
b110 4
b0 %
b0 +
0)
0#
#775000
1#
#780000
b10110001111100000101011001100011 "
b10110001111100000101011001100011 -
b110 &
b110 ,
0#
#781000
b110101110010111101100001101 8
b10000 7
b110101110010111101100001101 2
b10000 3
#785000
1#
#790000
1)
b110101110010111101100001101 %
b110101110010111101100001101 +
b10000 $
b10000 *
0#
#795000
1#
#800000
b110101110010111101100001101 5
b10000 4
b0 %
b0 +
0)
0#
#805000
1#
#810000
b110101110010111101100001101 "
b110101110010111101100001101 -
b10000 &
b10000 ,
0#
#811000
b1000110110111111001100110001101 8
b11000 7
b1000110110111111001100110001101 2
b11000 3
#815000
1#
#820000
1)
b1000110110111111001100110001101 %
b1000110110111111001100110001101 +
b11000 $
b11000 *
0#
#825000
1#
#830000
b1000110110111111001100110001101 5
b11000 4
b0 %
b0 +
0)
0#
#835000
1#
#840000
b1000110110111111001100110001101 "
b1000110110111111001100110001101 -
b11000 &
b11000 ,
0#
#841000
b10110010110000101000010001100101 8
b110 7
b10110010110000101000010001100101 2
b110 3
#845000
1#
#850000
1)
b10110010110000101000010001100101 %
b10110010110000101000010001100101 +
b110 $
b110 *
0#
#855000
1#
#860000
b10110010110000101000010001100101 5
b110 4
b0 %
b0 +
0)
0#
#865000
1#
#870000
b10110010110000101000010001100101 "
b10110010110000101000010001100101 -
b110 &
b110 ,
0#
#871000
b10001001001101110101001000010010 8
b1 7
b10001001001101110101001000010010 2
b1 3
#875000
1#
#880000
1)
b10001001001101110101001000010010 %
b10001001001101110101001000010010 +
b1 $
b1 *
0#
#885000
1#
#890000
b10001001001101110101001000010010 5
b1 4
b0 %
b0 +
0)
0#
#895000
1#
#900000
b10001001001101110101001000010010 "
b10001001001101110101001000010010 -
b1 &
b1 ,
0#
#901000
b111100111110001100000001 8
b10000 7
b111100111110001100000001 2
b10000 3
#905000
1#
#910000
1)
b111100111110001100000001 %
b111100111110001100000001 +
b10000 $
b10000 *
0#
#915000
1#
#920000
b111100111110001100000001 5
b10000 4
b0 %
b0 +
0)
0#
#925000
1#
#930000
b111100111110001100000001 "
b111100111110001100000001 -
b10000 &
b10000 ,
0#
#931000
b110110101111100110100001101 8
b110110101111100110100001101 2
#935000
1#
#940000
1)
b110110101111100110100001101 %
b110110101111100110100001101 +
0#
#945000
b110110101111100110100001101 "
b110110101111100110100001101 -
1#
#950000
b110110101111100110100001101 5
b0 %
b0 +
0)
0#
