tests/results/test_regfile.vcd
$date
	Sun Aug 17 08:46:55 2025
$end
$version
	Icarus Verilog
$end
$timescale
	1ps
$end
$scope module test_regfile $end
$var wire 32 ! rs2_data [31:0] $end
$var wire 32 " rs1_data [31:0] $end
$var reg 1 # clk $end
$var reg 5 $ rd [4:0] $end
$var reg 32 % rd_data [31:0] $end
$var reg 5 & rs1 [4:0] $end
$var reg 5 ' rs2 [4:0] $end
$var reg 1 ( rst_n $end
$var reg 1 ) test_failed $end
$var reg 1 * write_enable $end
$scope module dut $end
$var wire 1 # clk $end
$var wire 5 + rd [4:0] $end
$var wire 32 , rd_data [31:0] $end
$var wire 5 - rs1 [4:0] $end
$var wire 32 . rs1_data [31:0] $end
$var wire 5 / rs2 [4:0] $end
$var wire 32 0 rs2_data [31:0] $end
$var wire 1 ( rst_n $end
$var wire 1 * write_enable $end
$scope begin $ivl_for_loop0 $end
$var integer 32 1 i [31:0] $end
$upscope $end
$upscope $end
$scope begin $ivl_for_loop1 $end
$var integer 32 2 i [31:0] $end
$upscope $end
$scope begin $unm_blk_19 $end
$var reg 32 3 rd [31:0] $end
$var reg 5 4 rr [4:0] $end
$upscope $end
$scope task finish $end
$upscope $end
$scope task read_reg $end
$var reg 5 5 rad [4:0] $end
$var reg 32 6 rexp [31:0] $end
$var reg 2 7 rg_sel [1:0] $end
$upscope $end
$scope task write_reg $end
$var reg 5 8 wad [4:0] $end
$var reg 32 9 wdt [31:0] $end
$upscope $end
$upscope $end
$enddefinitions $end
#0
$dumpvars
bx 9
bx 8
bx 7
bx 6
bx 5
bx 4
bx 3
b0 2
b100000 1
b0 0
b0 /
b0 .
b0 -
b0 ,
b0 +
0*
x)
0(
b0 '
b0 &
b0 %
b0 $
0#
b0 "
b0 !
$end
#5000
b100000 1
1#
#10000
0#
#15000
1(
1#
#20000
0#
#25000
b0 7
b0 6
b0 5
1#
#30000
0#
#31000
b1 7
#35000
1#
#40000
0#
#41000
b0 7
b1 5
b1 2
#45000
1#
#50000
b1 &
b1 -
0#
#51000
b1 7
#55000
1#
#60000
b1 '
b1 /
0#
#61000
b0 7
b10 5
b10 2
#65000
1#
#70000
b10 &
b10 -
0#
#71000
b1 7
#75000
1#
#80000
b10 '
b10 /
0#
#81000
b0 7
b11 5
b11 2
#85000
1#
#90000
b11 &
b11 -
0#
#91000
b1 7
#95000
1#
#100000
b11 '
b11 /
0#
#101000
b0 7
b100 5
b100 2
#105000
1#
#110000
b100 &
b100 -
0#
#111000
b1 7
#115000
1#
#120000
b100 '
b100 /
0#
#121000
b0 7
b101 5
b101 2
#125000
1#
#130000
b101 &
b101 -
0#
#131000
b1 7
#135000
1#
#140000
b101 '
b101 /
0#
#141000
b0 7
b110 5
b110 2
#145000
1#
#150000
b110 &
b110 -
0#
#151000
b1 7
#155000
1#
#160000
b110 '
b110 /
0#
#161000
b0 7
b111 5
b111 2
#165000
1#
#170000
b111 &
b111 -
0#
#171000
b1 7
#175000
1#
#180000
b111 '
b111 /
0#
#181000
b0 7
b1000 5
b1000 2
#185000
1#
#190000
b1000 &
b1000 -
0#
#191000
b1 7
#195000
1#
#200000
b1000 '
b1000 /
0#
#201000
b0 7
b1001 5
b1001 2
#205000
1#
#210000
b1001 &
b1001 -
0#
#211000
b1 7
#215000
1#
#220000
b1001 '
b1001 /
0#
#221000
b0 7
b1010 5
b1010 2
#225000
1#
#230000
b1010 &
b1010 -
0#
#231000
b1 7
#235000
1#
#240000
b1010 '
b1010 /
0#
#241000
b0 7
b1011 5
b1011 2
#245000
1#
#250000
b1011 &
b1011 -
0#
#251000
b1 7
#255000
1#
#260000
b1011 '
b1011 /
0#
#261000
b0 7
b1100 5
b1100 2
#265000
1#
#270000
b1100 &
b1100 -
0#
#271000
b1 7
#275000
1#
#280000
b1100 '
b1100 /
0#
#281000
b0 7
b1101 5
b1101 2
#285000
1#
#290000
b1101 &
b1101 -
0#
#291000
b1 7
#295000
1#
#300000
b1101 '
b1101 /
0#
#301000
b0 7
b1110 5
b1110 2
#305000
1#
#310000
b1110 &
b1110 -
0#
#311000
b1 7
#315000
1#
#320000
b1110 '
b1110 /
0#
#321000
b0 7
b1111 5
b1111 2
#325000
1#
#330000
b1111 &
b1111 -
0#
#331000
b1 7
#335000
1#
#340000
b1111 '
b1111 /
0#
#341000
b0 7
b10000 5
b10000 2
#345000
1#
#350000
b10000 &
b10000 -
0#
#351000
b1 7
#355000
1#
#360000
b10000 '
b10000 /
0#
#361000
b0 7
b10001 5
b10001 2
#365000
1#
#370000
b10001 &
b10001 -
0#
#371000
b1 7
#375000
1#
#380000
b10001 '
b10001 /
0#
#381000
b0 7
b10010 5
b10010 2
#385000
1#
#390000
b10010 &
b10010 -
0#
#391000
b1 7
#395000
1#
#400000
b10010 '
b10010 /
0#
#401000
b0 7
b10011 5
b10011 2
#405000
1#
#410000
b10011 &
b10011 -
0#
#411000
b1 7
#415000
1#
#420000
b10011 '
b10011 /
0#
#421000
b0 7
b10100 5
b10100 2
#425000
1#
#430000
b10100 &
b10100 -
0#
#431000
b1 7
#435000
1#
#440000
b10100 '
b10100 /
0#
#441000
b0 7
b10101 5
b10101 2
#445000
1#
#450000
b10101 &
b10101 -
0#
#451000
b1 7
#455000
1#
#460000
b10101 '
b10101 /
0#
#461000
b0 7
b10110 5
b10110 2
#465000
1#
#470000
b10110 &
b10110 -
0#
#471000
b1 7
#475000
1#
#480000
b10110 '
b10110 /
0#
#481000
b0 7
b10111 5
b10111 2
#485000
1#
#490000
b10111 &
b10111 -
0#
#491000
b1 7
#495000
1#
#500000
b10111 '
b10111 /
0#
#501000
b0 7
b11000 5
b11000 2
#505000
1#
#510000
b11000 &
b11000 -
0#
#511000
b1 7
#515000
1#
#520000
b11000 '
b11000 /
0#
#521000
b0 7
b11001 5
b11001 2
#525000
1#
#530000
b11001 &
b11001 -
0#
#531000
b1 7
#535000
1#
#540000
b11001 '
b11001 /
0#
#541000
b0 7
b11010 5
b11010 2
#545000
1#
#550000
b11010 &
b11010 -
0#
#551000
b1 7
#555000
1#
#560000
b11010 '
b11010 /
0#
#561000
b0 7
b11011 5
b11011 2
#565000
1#
#570000
b11011 &
b11011 -
0#
#571000
b1 7
#575000
1#
#580000
b11011 '
b11011 /
0#
#581000
b0 7
b11100 5
b11100 2
#585000
1#
#590000
b11100 &
b11100 -
0#
#591000
b1 7
#595000
1#
#600000
b11100 '
b11100 /
0#
#601000
b0 7
b11101 5
b11101 2
#605000
1#
#610000
b11101 &
b11101 -
0#
#611000
b1 7
#615000
1#
#620000
b11101 '
b11101 /
0#
#621000
b0 7
b11110 5
b11110 2
#625000
1#
#630000
b11110 &
b11110 -
0#
#631000
b1 7
#635000
1#
#640000
b11110 '
b11110 /
0#
#641000
b0 7
b11111 5
b11111 2
#645000
1#
#650000
b11111 &
b11111 -
0#
#651000
b1 7
#655000
1#
#660000
b11111 '
b11111 /
0#
#661000
b100000 2
#662000
b10010000101010011010100100100 9
b10010 8
b10010000101010011010100100100 3
b10010 4
#665000
1#
#670000
1*
b10010000101010011010100100100 %
b10010000101010011010100100100 ,
b10010 $
b10010 +
0#
#675000
1#
#680000
b0 7
b10010000101010011010100100100 6
b10010 5
b0 %
b0 ,
0*
0#
#685000
1#
#690000
b10010000101010011010100100100 "
b10010000101010011010100100100 .
b10010 &
b10010 -
0#
#691000
b11000000100010010101111010000001 9
b1000 8
b11000000100010010101111010000001 3
b1000 4
#695000
1#
#700000
1*
b11000000100010010101111010000001 %
b11000000100010010101111010000001 ,
b1000 $
b1000 +
0#
#705000
1#
#710000
b11000000100010010101111010000001 6
b1000 5
b0 %
b0 ,
0*
0#
#715000
1#
#720000
b11000000100010010101111010000001 "
b11000000100010010101111010000001 .
b1000 &
b1000 -
0#
#721000
b10000100100001001101011000001001 9
b0 8
b10000100100001001101011000001001 3
b0 4
#725000
1#
#730000
1*
b10000100100001001101011000001001 %
b10000100100001001101011000001001 ,
b0 $
b0 +
0#
#735000
1#
#740000
b0 6
b0 5
b0 %
b0 ,
0*
0#
#745000
1#
#750000
b0 "
b0 .
b0 &
b0 -
0#
#751000
b10110001111100000101011001100011 9
b110 8
b10110001111100000101011001100011 3
b110 4
#755000
1#
#760000
1*
b10110001111100000101011001100011 %
b10110001111100000101011001100011 ,
b110 $
b110 +
0#
#765000
1#
#770000
b10110001111100000101011001100011 6
b110 5
b0 %
b0 ,
0*
0#
#775000
1#
#780000
b10110001111100000101011001100011 "
b10110001111100000101011001100011 .
b110 &
b110 -
0#
#781000
b110101110010111101100001101 9
b10000 8
b110101110010111101100001101 3
b10000 4
#785000
1#
#790000
1*
b110101110010111101100001101 %
b110101110010111101100001101 ,
b10000 $
b10000 +
0#
#795000
1#
#800000
b110101110010111101100001101 6
b10000 5
b0 %
b0 ,
0*
0#
#805000
1#
#810000
b110101110010111101100001101 "
b110101110010111101100001101 .
b10000 &
b10000 -
0#
#811000
b1000110110111111001100110001101 9
b11000 8
b1000110110111111001100110001101 3
b11000 4
#815000
1#
#820000
1*
b1000110110111111001100110001101 %
b1000110110111111001100110001101 ,
b11000 $
b11000 +
0#
#825000
1#
#830000
b1000110110111111001100110001101 6
b11000 5
b0 %
b0 ,
0*
0#
#835000
1#
#840000
b1000110110111111001100110001101 "
b1000110110111111001100110001101 .
b11000 &
b11000 -
0#
#841000
b10110010110000101000010001100101 9
b110 8
b10110010110000101000010001100101 3
b110 4
#845000
1#
#850000
1*
b10110010110000101000010001100101 %
b10110010110000101000010001100101 ,
b110 $
b110 +
0#
#855000
1#
#860000
b10110010110000101000010001100101 6
b110 5
b0 %
b0 ,
0*
0#
#865000
1#
#870000
b10110010110000101000010001100101 "
b10110010110000101000010001100101 .
b110 &
b110 -
0#
#871000
b10001001001101110101001000010010 9
b1 8
b10001001001101110101001000010010 3
b1 4
#875000
1#
#880000
1*
b10001001001101110101001000010010 %
b10001001001101110101001000010010 ,
b1 $
b1 +
0#
#885000
1#
#890000
b10001001001101110101001000010010 6
b1 5
b0 %
b0 ,
0*
0#
#895000
1#
#900000
b10001001001101110101001000010010 "
b10001001001101110101001000010010 .
b1 &
b1 -
0#
#901000
b111100111110001100000001 9
b10000 8
b111100111110001100000001 3
b10000 4
#905000
1#
#910000
1*
b111100111110001100000001 %
b111100111110001100000001 ,
b10000 $
b10000 +
0#
#915000
1#
#920000
b111100111110001100000001 6
b10000 5
b0 %
b0 ,
0*
0#
#925000
1#
#930000
b111100111110001100000001 "
b111100111110001100000001 .
b10000 &
b10000 -
0#
#931000
b110110101111100110100001101 9
b110110101111100110100001101 3
#935000
1#
#940000
1*
b110110101111100110100001101 %
b110110101111100110100001101 ,
0#
#945000
b110110101111100110100001101 "
b110110101111100110100001101 .
1#
#950000
b110110101111100110100001101 6
b0 %
b0 ,
0*
0#
